{
    "name": "",
    "type": "raster-datacube",
    "data": [],
    "dimensions": {
        "geometry" : [],
        "t" : [],
        "band" : [],
        "x" : [],
        "y" : []
    },
    "profiles" : {}
}