{
   "api_version": "$version",
   "backend_version": "1.0.0",
   "title": "OPENEO API",
   "description": "OPENEO API",
   "stac_version": "1.0.0-beta.2",
   "id": "OPENEO_SERVICE_ID_OPENEO_1.0.0",
   "production": true,
   "endpoints": [
		{
			"path": "/file_formats",
			"methods": [
				"GET"
			]
		},
		{
			"path": "/me",
			"methods": [
				"GET"
			]
		},
		{
			"path": "/credentials/basic",
			"methods": [
				"GET"
			]
		},
		{
			"path": "/collections",
			"methods": [
				"GET"
			]
		},
		{
			"path": "/collections/{collection_id}",
			"methods": [
				"GET"
			]
		},
		{
			"path": "/processes",
			"methods": [
				"GET"
			]
		},
		{
			"path": "/jobs",
			"methods": [
				"GET",
				"POST"
			]
		},
		{
			"path": "/jobs/{job_id}",
			"methods": [
				"GET",
				"PATCH"
			]
		},
		{
			"path": "/jobs/{job_id}/results",
			"methods": [
				"GET",
				"POST"
			]
		},
		{
			"path": "/jobs/{job_id}/estimate",
			"methods": [
				"GET"
			]
		},
		{
			"path": "/result",
			"methods": [
				"POST"
			]
		}
	],
    "billing": {
		"currency": "EUR",
		"default_plan": "free",
		"plans": [
			{
				"name": "free",
				"description": "Free plan",
				"url": "http://localhost/plans/free-plan",
				"paid": false
			},
			{
				"name": "silver",
				"description": "Silver plan",
				"url": "http://localhost/plans/free-plan",
				"paid": true
			 }
		]
	},
    "links": [
        {
            "href": "http://www.e-geos.com",
            "rel": "about",
            "type": "text/html",
            "title": "Homepage of the service provider"
        },
        {
			"href": "http://localhost:8080/api/.well-known/openeo",
			"rel": "version-history",
			"type": "application/json",
			"title": "List of supported openEO versions"
		}
    ]
}
